[gd_scene load_steps=3 format=2]

[ext_resource path="res://scenes/map/Map.tscn" type="PackedScene" id=1]
[ext_resource path="res://themes/Main.tres" type="Theme" id=2]

[node name="M0" instance=ExtResource( 1 )]
tile_data = PoolIntArray( 0, 0, 0, 1, 0, 0, 2, 0, 0, 3, 0, 0, 4, 0, 0, 5, 0, 0, 6, 0, 0, 7, 0, 0, 8, 0, 0, 9, 0, 0, 10, 0, 0, 11, 0, 0, 12, 0, 0, 13, 0, 0, 14, 0, 0, 15, 0, 0, 16, 0, 0, 17, 0, 0, 18, 0, 0, 19, 0, 0, 20, 0, 0, 21, 0, 0, 22, 0, 0, 23, 0, 0, 24, 0, 0, 25, 0, 0, 26, 0, 0, 27, 0, 0, 28, 0, 0, 29, 0, 0, 65536, 0, 0, 65565, 0, 0, 131072, 0, 0, 131101, 0, 0, 196608, 0, 0, 196637, 0, 0, 262144, 0, 0, 262173, 0, 0, 327680, 0, 0, 327709, 0, 0, 393216, 0, 0, 393245, 0, 0, 458752, 0, 0, 458781, 0, 0, 524288, 0, 0, 524317, 0, 0, 589824, 0, 0, 589853, 0, 0, 655360, 0, 0, 655389, 0, 0, 720896, 0, 0, 720925, 0, 0, 786432, 0, 0, 786461, 0, 0, 851968, 0, 0, 851997, 0, 0, 917504, 0, 0, 917533, 0, 0, 983040, 0, 0, 983064, 2, 0, 983069, 0, 0, 1048576, 0, 0, 1048577, 0, 0, 1048578, 0, 0, 1048579, 0, 0, 1048580, 0, 0, 1048581, 0, 0, 1048582, 0, 0, 1048583, 0, 0, 1048584, 0, 0, 1048585, 0, 0, 1048586, 0, 0, 1048587, 0, 0, 1048588, 0, 0, 1048589, 0, 0, 1048590, 0, 0, 1048591, 0, 0, 1048592, 0, 0, 1048593, 0, 0, 1048594, 0, 0, 1048595, 0, 0, 1048596, 0, 0, 1048597, 0, 0, 1048598, 0, 0, 1048599, 0, 0, 1048600, 0, 0, 1048601, 0, 0, 1048602, 0, 0, 1048603, 0, 0, 1048604, 0, 0, 1048605, 0, 0 )
health = 1
steps = 40

[node name="SpawnPoint" parent="." index="0"]
position = Vector2( 118, 241 )

[node name="Label" type="Label" parent="." index="1"]
margin_left = 162.0
margin_top = 217.0
margin_right = 228.0
margin_bottom = 231.0
theme = ExtResource( 2 )
text = "This way→"

[node name="Label2" type="Label" parent="." index="2"]
margin_left = 146.0
margin_top = 181.0
margin_right = 260.0
margin_bottom = 204.0
theme = ExtResource( 2 )
text = "Use arrow keys or 'WAD' to move"
autowrap = true

[node name="Label3" type="Label" parent="." index="3"]
margin_left = 292.0
margin_top = 213.0
margin_right = 472.0
margin_bottom = 249.0
theme = ExtResource( 2 )
text = "Hit enter to restart the level"
autowrap = true
