[gd_scene load_steps=3 format=2]

[ext_resource path="res://scenes/map/Map.tscn" type="PackedScene" id=1]
[ext_resource path="res://themes/Main.tres" type="Theme" id=2]

[node name="M2" instance=ExtResource( 1 )]
tile_data = PoolIntArray( 0, 0, 0, 1, 0, 0, 2, 0, 0, 3, 0, 0, 4, 0, 0, 5, 0, 0, 6, 0, 0, 7, 0, 0, 8, 0, 0, 9, 0, 0, 10, 0, 0, 11, 0, 0, 12, 0, 0, 13, 0, 0, 14, 0, 0, 15, 0, 0, 16, 0, 0, 17, 0, 0, 18, 0, 0, 19, 0, 0, 20, 0, 0, 21, 0, 0, 22, 0, 0, 23, 0, 0, 24, 0, 0, 25, 0, 0, 26, 0, 0, 27, 0, 0, 28, 0, 0, 29, 0, 0, 30, 0, 0, 65536, 0, 0, 65566, 0, 0, 131072, 0, 0, 131102, 0, 0, 196608, 0, 0, 196638, 0, 0, 262144, 0, 0, 262174, 0, 0, 327680, 0, 0, 327710, 0, 0, 393216, 0, 0, 393246, 0, 0, 458752, 0, 0, 458782, 0, 0, 524288, 0, 0, 524311, 2, 0, 524318, 0, 0, 589824, 0, 0, 589844, 0, 0, 589845, 0, 0, 589846, 0, 0, 589847, 0, 0, 589848, 0, 0, 589849, 0, 0, 589854, 0, 0, 655360, 0, 0, 655378, 0, 0, 655379, 0, 0, 655380, 0, 0, 655390, 0, 0, 720896, 0, 0, 720910, 1, 0, 720926, 0, 0, 786432, 0, 0, 786444, 0, 0, 786445, 0, 0, 786446, 0, 0, 786447, 0, 0, 786448, 0, 0, 786462, 0, 0, 851968, 0, 0, 851980, 0, 0, 851998, 0, 0, 917504, 0, 0, 917509, 0, 0, 917510, 0, 0, 917511, 0, 0, 917512, 0, 0, 917513, 0, 0, 917534, 0, 0, 983040, 0, 0, 983045, 0, 0, 983070, 0, 0, 1048576, 0, 0, 1048581, 0, 0, 1048606, 0, 0, 1114112, 0, 0, 1114113, 0, 0, 1114114, 0, 0, 1114115, 0, 0, 1114116, 0, 0, 1114117, 0, 0, 1114118, 0, 0, 1114119, 0, 0, 1114120, 0, 0, 1114121, 0, 0, 1114122, 0, 0, 1114123, 0, 0, 1114124, 0, 0, 1114125, 0, 0, 1114126, 0, 0, 1114127, 0, 0, 1114128, 0, 0, 1114129, 0, 0, 1114130, 0, 0, 1114131, 0, 0, 1114132, 0, 0, 1114133, 0, 0, 1114134, 0, 0, 1114135, 0, 0, 1114136, 0, 0, 1114137, 0, 0, 1114138, 0, 0, 1114139, 0, 0, 1114140, 0, 0, 1114141, 0, 0, 1114142, 0, 0 )
steps = 21

[node name="SpawnPoint" parent="." index="0"]
position = Vector2( 50, 233 )

[node name="Label" type="Label" parent="." index="1"]
margin_left = 106.0
margin_top = 142.0
margin_right = 267.0
margin_bottom = 156.0
theme = ExtResource( 2 )
text = "Avoid touching triangles"
